label,image,item-count,item-key
The Remains of Barnabus,https://gitlab.com/MidnightLightning/wonders-of-the-first/-/raw/main/individual-cards/The%20Remains%20of%20Barnabus.jpg?inline=false,3,type-078081e7-141b-415b-b18b-9a6089342bf1
Dealmaker Paladius,https://gitlab.com/MidnightLightning/wonders-of-the-first/-/raw/main/individual-cards/Dealmaker%20Paladius.jpg?inline=false,2,type-e45fbb3c-73bc-40af-ab18-bf8579e4f1c8
Charging Polpo,https://gitlab.com/MidnightLightning/wonders-of-the-first/-/raw/main/individual-cards/Charging%20Polpo.jpg?inline=false,2,type-20acf34e-555b-4fe9-85ee-241bc940a76c
Deep Black Goop,https://gitlab.com/MidnightLightning/wonders-of-the-first/-/raw/main/individual-cards/Deep%20Black%20Goop.jpg?inline=false,1,type-57476e52-fd93-4473-9bc8-e71ea93b3197
Valthok Bladebane,https://gitlab.com/MidnightLightning/wonders-of-the-first/-/raw/main/individual-cards/Valthok%20Bladebane.jpg?inline=false,1,type-f0bc45f2-6d51-4e48-b573-8f3c9f97cd4d
Flying Suzzer,https://gitlab.com/MidnightLightning/wonders-of-the-first/-/raw/main/individual-cards/Flying%20Suzzer.jpg?inline=false,1,type-27251231-2c7f-4129-b69a-9112c0b27a4c
Endless Ram,https://gitlab.com/MidnightLightning/wonders-of-the-first/-/raw/main/individual-cards/Endless%20Ram.jpg?inline=false,2,type-93c4791e-490c-4638-9368-93c1cab41c05
Stealthy Spriggan,https://gitlab.com/MidnightLightning/wonders-of-the-first/-/raw/main/individual-cards/Stealthy%20Spriggan.jpg?inline=false,1,type-846c829a-a2be-4120-91d7-51b88dc33c50
Dark Magic Hydra,https://gitlab.com/MidnightLightning/wonders-of-the-first/-/raw/main/individual-cards/Dark%20Magic%20Hydra.jpg?inline=false,1,type-53015492-345d-48ee-bfd6-ee6789b5ecb5
Blasting Duel,https://gitlab.com/MidnightLightning/wonders-of-the-first/-/raw/main/individual-cards/Blasting%20Duel.jpg?inline=false,1,type-7b7fe1bb-882f-439f-8db8-136b3719bf5f
Giant Goo'rah Beast,https://gitlab.com/MidnightLightning/wonders-of-the-first/-/raw/main/individual-cards/Giant%20Goo'Rah%20Beast.jpg?inline=false,1,type-eba363c5-3110-4bc3-8254-4c588628276f
"Autumn, Essence Animated",https://gitlab.com/MidnightLightning/wonders-of-the-first/-/raw/main/individual-cards/Autumn%20Essence%20Animated.jpg?inline=false,1,type-60e80bb8-5b4f-42df-a4b5-62793d110d9d
Boneharvest Harp,https://gitlab.com/MidnightLightning/wonders-of-the-first/-/raw/main/individual-cards/Boneharvest%20Harp.jpg?inline=false,2,type-76ddc8b2-18a9-4aa4-a490-5cf112fd0167
Wretched Mirror of Requiem,https://gitlab.com/MidnightLightning/wonders-of-the-first/-/raw/main/individual-cards/Wretched%20Mirror%20of%20Redemption.jpg?inline=false,2,type-6b99c967-6448-428c-a1f2-64c805ef0dd0
"Ella, Procurer of Meatsacks",https://gitlab.com/MidnightLightning/wonders-of-the-first/-/raw/main/individual-cards/Ella%20Procurer%20of%20Meatsacks.jpg?inline=false,2,type-4bca732b-3984-4a52-91ac-469d21f077f2
Divine Bloodbearer,https://gitlab.com/MidnightLightning/wonders-of-the-first/-/raw/main/individual-cards/Divine%20Bloodbearer.jpg?inline=false,1,type-ae189431-936a-4551-9547-1e2b4d1bc54f
"Cura, Voice of Terror",https://gitlab.com/MidnightLightning/wonders-of-the-first/-/raw/main/individual-cards/Cura%20Voice%20of%20Terror.jpg?inline=false,2,type-bd551668-4fdf-4dcb-91c2-1e0d6258d92a
Hester Dust,https://gitlab.com/MidnightLightning/wonders-of-the-first/-/raw/main/individual-cards/Hester%20Dust.jpg?inline=false,2,type-4b817592-2712-4ae2-ab58-566c252b9bd7
Baern Bal'Thor,https://gitlab.com/MidnightLightning/wonders-of-the-first/-/raw/main/individual-cards/Baern%20Bal'Thor.jpg?inline=false,1,type-78043e54-b9a2-4af9-ab47-64da609cd671
End a Bloodline,https://gitlab.com/MidnightLightning/wonders-of-the-first/-/raw/main/individual-cards/End%20a%20Bloodline.jpg?inline=false,1,type-e68985e4-d81a-4e3d-a20c-18674ce8d26f
Summon Crushing Rock,https://gitlab.com/MidnightLightning/wonders-of-the-first/-/raw/main/individual-cards/Summon%20Crushing%20Rock.jpg?inline=false,1,type-b1228823-91be-4d08-bbfc-39360ceec61c
Keeper of Drury Skulls,https://gitlab.com/MidnightLightning/wonders-of-the-first/-/raw/main/individual-cards/Keeper%20of%20Drury%20Skulls.jpg?inline=false,1,type-c3e100bd-62c2-45f3-af39-e4fc1a9f89b6
Cryptreach Province,https://gitlab.com/MidnightLightning/wonders-of-the-first/-/raw/main/individual-cards/Cryptreach%20Province.jpg?inline=false,3,type-8381d8f5-15e6-47e2-9a5d-c5aa9d0ec01a
Darkiron City,https://gitlab.com/MidnightLightning/wonders-of-the-first/-/raw/main/individual-cards/Darkiron%20City.jpg?inline=false,3,type-9377f613-45c5-4dd0-b126-46b51945fb98
Warfang Fortress,https://gitlab.com/MidnightLightning/wonders-of-the-first/-/raw/main/individual-cards/Warfang%20Fortress.jpg?inline=false,2,type-30575234-4323-46f5-b4f0-6c62cd606b48
King Hei'an,https://gitlab.com/MidnightLightning/wonders-of-the-first/-/raw/main/individual-cards/King%20Hei'an.jpg?inline=false,1,type-bc03cbad-db14-4460-a0a6-bb8c0975d0ca
Energy Extraction,https://gitlab.com/MidnightLightning/wonders-of-the-first/-/raw/main/individual-cards/Energy%20Extraction.jpg?inline=false,2,type-17f4c945-a1cf-4621-bc9a-0f51770d3dd8
The Forgotten Draugr,https://gitlab.com/MidnightLightning/wonders-of-the-first/-/raw/main/individual-cards/The%20Forgotten%20Draugr.jpg?inline=false,3,type-e4956f33-1eb2-4621-ab45-790ddae1080d
Skaldar Grimshade,https://gitlab.com/MidnightLightning/wonders-of-the-first/-/raw/main/individual-cards/Skaldar%20Grimshade.jpg?inline=false,2,type-432ce9b2-c9ff-405a-91be-862e81db7983
Caroline Candole,https://gitlab.com/MidnightLightning/wonders-of-the-first/-/raw/main/individual-cards/Caroline%20Candole.jpg?inline=false,1,type-033cf95d-821f-4a09-a40d-f55d4dec616b
The First,https://gitlab.com/MidnightLightning/wonders-of-the-first/-/raw/main/individual-cards/The%20First.jpg?inline=false,1,type-a741ecd5-892c-4120-88c7-16d10d4a0ca3
